…
### 문자열 찾기

```{r}
x <- c("apple", "banana", "pear")
str_detect(x, "e")
#> [1]  TRUE FALSE  TRUE
str_detect(x, "b")
#> [1] FALSE  TRUE FALSE
str_detect(x, "x")
#> [1] FALSE FALSE FALSE

library(babynames)
head(babynames)
babynames %>% filter(str_detect(name, "x"))
#> # A tibble: 16,317 × 5
#>    year sex   name          n      prop
#>   <dbl> <chr> <chr>     <int>     <dbl>
#> 1  1880 F     Roxie        62 0.000635 
#> 2  1880 F     Dixie        15 0.000154 
#> 3  1880 F     Roxanna       9 0.0000922
#> 4  1880 F     Texas         5 0.0000512
#> 5  1880 M     Alexander   211 0.00178  
#> 6  1880 M     Alex        147 0.00124  
#> # … with 16,311 more rows
```
…
### 문자열 길이

```{r}
str_length(c("a", "R for data science", NA))

str_length(c("가", "강", "갉", "강산"))

```

미국 아기이름의 길이의 분포를 찾고, filter() 로 가장 긴 이름을 찾아라

```{r}
babynames %>%
  count(length = str_length(name), wt = n)
#> # A tibble: 14 × 2
#>   length        n
#>    <int>    <int>
#> 1      2   338150
#> 2      3  8589596
#> 3      4 48506739
#> 4      5 87011607
#> 5      6 90749404
#> 6      7 72120767
#> # … with 8 more rows

babynames %>% 
  filter(str_length(name) == 15) %>% 
  count(name, wt = n, sort = TRUE)
#> # A tibble: 34 × 2
#>   name                n
#>   <chr>           <int>
#> 1 Franciscojavier   123
#> 2 Christopherjohn   118
#> 3 Johnchristopher   118
#> 4 Christopherjame   108
#> 5 Christophermich    52
#> 6 Ryanchristopher    45
#> # … with 28 more rows
```
…
```{r}
str_sub("a", 1, 5)
#> [1] "a"

```

미국 이름의 첫글자와 마지막 글자를 찾아라

```{r}
babynames %>% 
  mutate(
    first = str_sub(name, 1, 1),
    last = str_sub(name, -1, -1)
  )
#> # A tibble: 1,924,665 × 7
#>    year sex   name          n   prop first last 
#>   <dbl> <chr> <chr>     <int>  <dbl> <chr> <chr>
#> 1  1880 F     Mary       7065 0.0724 M     y    
#> 2  1880 F     Anna       2604 0.0267 A     a    
#> 3  1880 F     Emma       2003 0.0205 E     a    
#> 4  1880 F     Elizabeth  1939 0.0199 E     h    
#> 5  1880 F     Minnie     1746 0.0179 M     e    
#> 6  1880 F     Margaret   1578 0.0162 M     t    
#> # … with 1,924,659 more rows
```
…
